{
    "appSecret": "b5f554261180cb78f41eec3fb0eb4217",
    "pageAccessToken": "EAABmtrm4aYUBAGpuy7iCFDBSJs7KzfZBfDP1LjYcLiWa9bMfqFZC2wpjvt2e2ZCJZCyb8dxMiG2ZAJcapNrJCtZBODkwfsPdnwx5EJ4WVUdc6xPrANrvZCC9b5O6AnnOmcoYHnMHZBWs0ZC3QGk0OU0QImpNq2JKZCy7uNaqcPXv0x2wVIDZCHKGEJa",
    "validationToken": "cwqE6fU6T8kexqNm7BkQXQV3906dGR"
}